-0.0059202528450058266
-0.010254178721196749
-0.013001777628585025
-0.016174431566188727
-0.017760758534998755
-0.019772140534024211
-0.022208577563270781
-0.024531121440426115
-0.025267338348794337
-0.026428610287377988
-0.028014937256180351
-0.029487371072893877
-0.031384859919832683
-0.033168455614680251
-0.034838158157441623
-0.036538378278324381
-0.036652271430424835
-0.037191219612740717
-0.038155222825273553
-0.039005332885719314
-0.040280497976386193
-0.041441769914964226
-0.042489148701456717
-0.043567045066071702
-0.045069996460915016
-0.046459054703667096
-0.047734219794331859
-0.049039902463119123
-0.050231691979823884
-0.051453999074650029
-0.052706823747601023
-0.053951471260135921
-0.053609791803892068
-0.053693167377863615
-0.054201597982050841
-0.054596135434152281
-0.055415727916471778
-0.056121427246704207
-0.056713233424851538
-0.057335557181122196
-0.058382935967615734
-0.059316421602020449
-0.060136014084338961
-0.060986124144780607
-0.061722341053139118
-0.062489075539620124
-0.063286327604225798
-0.064075402508416396
-0.065289532442837528
-0.066389769225167428
-0.067376112855409218
-0.068392974063774314
-0.069295942120054965
-0.070229427754458104
-0.071193430966986423
-0.072149257019099161
-0.072991189919132102
-0.07386364039728642
-0.074766608453564601
-0.075661399349427685
-0.076586707823418157
-0.077503839136992547
-0.078412793290153465
-0.079323938506841662
-0.078648756754753635
-0.078398630032881056
-0.07857355834122319
-0.07863459349748049
-0.079120683683953627
-0.079492880718340986
-0.079751184600643565
-0.08004000606107009
-0.080753882551715506
-0.081353865890273824
-0.081839956076746767
-0.08235656384134335
-0.082759278453856305
-0.083192510644492582
-0.083656260413253386
-0.08411183302159983
-0.084992460660170438
-0.085759195146652215
-0.086412036481047311
-0.087095395393566033
-0.08766486115400049
-0.088264844492558073
-0.088895345409240517
-0.089517669165508157
-0.090026099769694445
-0.090565047952003208
-0.091134513712435999
-0.091695802312454361
-0.092287608490598971
-0.092871237508328486
-0.09344668936564457
-0.094024332286488627
-0.095027030237564869
-0.095915835036549865
-0.096690746683446155
-0.097496175908466334
-0.098187711981400652
-0.098909765632458291
-0.099662336861641318
-0.10040673093040917
-0.10103723184709468
-0.10169825034190268
-0.10238978641483504
-0.10307314532735264
-0.1037870218179973
-0.1044927211482264
-0.10519024331804194
-0.10588995655138524
-0.1064757766326507
-0.10709211429203754
-0.10773896952954752
-0.10837764760664312
-0.10904684326186441
-0.1097078617566706
-0.11036070309106358
-0.11101573548898427
-0.11170128546503423
-0.11237865828066809
-0.11304785393588782
-0.11371924065463548
-0.11438245021297157
-0.11504785083483493
-0.11571544252022747
-0.11638244711191542
-0.11546312473482906
-0.11496885738795812
-0.11489964507130121
-0.11471653960256015
-0.11495848916403331
-0.11508654557342163
-0.11510070883072543
-0.11514538966615361
-0.11561512553179773
-0.11597096824535605
-0.11621291780682963
-0.11648538494642714
-0.11664395893394069
-0.11683305049957816
-0.11705265964334008
-0.11726409162668816
-0.11790057864025574
-0.11842317250173626
-0.11883187321113116
-0.11927109149864987
-0.11959641663408449
-0.1199522593476427
-0.12033861963932554
-0.12071680277059416
-0.12098109274978022
-0.1212759003070896
-0.12160122544252311
-0.12191837341754268
-0.12226603897068769
-0.12260552736341834
-0.12293683859573558
-0.12327034089158126
-0.12402889821765206
-0.12467356239163402
-0.12520433341352899
-0.12576562201354788
-0.12621301746148172
-0.12669093048753916
-0.12719936109172159
-0.12769961453548942
-0.12808597482717443
-0.12850285269698256
-0.12895024814491504
-0.12938946643243326
-0.12985920229807751
-0.130320761003307
-0.13077414254812303
-0.13122971515646728
-0.13157139461273143
-0.13194359164711808
-0.13234630625962823
-0.13274084371172445
-0.13316589874194584
-0.13358277661175277
-0.13399147732114641
-0.13440236909406833
-0.13484377844511769
-0.13527701063575193
-0.13570206566597234
-0.13612931175972112
-0.13654838069305769
-0.13696964068992218
-0.13739309175031586
-0.13781595571700547
-0.13866387471392844
-0.1393979005587602
-0.14001803325150278
-0.14066868352236975
-0.14120544064114976
-0.14177271533805372
-0.14237050761308317
-0.14296012272769776
-0.14343584469022816
-0.14394208423088189
-0.14447884134966038
-0.14500742130802427
-0.14556651884451499
-0.14611743922059056
-0.14666018243625251
-0.14720511671544254
-0.1476361578425518
-0.1480977165477835
-0.14858979283113907
-0.14907369195408041
-0.14958810865514743
-0.15009434819579973
-0.15059241057603862
-0.15109266401980564
-0.15162343504170114
-0.15214602890318113
-0.15266044560424696
-0.1531770533688411
-0.15368548397302312
-0.15419610564073286
-0.15470891837197184
-0.15522114400950651
-0.15561947649496488
-0.15604832655854459
-0.15650769420024691
-0.1569588846815354
-0.15744059274094824
-0.15791412363994672
-0.15837947737853222
-0.15884702218064578
-0.15934508456088639
-0.15983496978071185
-0.1603166778401236
-0.16080057696306357
-0.16127629892559173
-0.1617542119516476
-0.16223431604123262
-0.1627138330371134
-0.16322386761112478
-0.16372572502472008
-0.16421940527790077
-0.16471527659460988
-0.16520297075090623
-0.16569285597073055
-0.16618493225408423
-0.16667642144373365
-0.1671597334729728
-0.16764523656573926
-0.16813293072203439
-0.16862003778462548
-0.16910933591074709
-0.1695980469431641
-0.17008617088187794
-0.17057445213187439
-0.16947640641309794
-0.16880341572453691
-0.16855548006618942
-0.1681936512557583
-0.16825687747554008
-0.16820621054323773
-0.16804165045885114
-0.16790760795258922
-0.16819862047654108
-0.16837573984840815
-0.16843896606819081
-0.1685327098660977
-0.16851256051192043
-0.16852292873586749
-0.16856381453793892
-0.16859652317959689
-0.16905428685147095
-0.16939815737125918
-0.16962813473896265
-0.1698886296847901
-0.1700352314785335
-0.17021235085040082
-0.17041998780039261
-0.17061944758997061
-0.17070501422746523
-0.1708210984430838
-0.17096770023682653
-0.17110612487015567
-0.17127506708160964
-0.17143583213264979
-0.17158842002327657
-0.17174319897743212
-0.17232303296180765
-0.17278897379409608
-0.17314102147429877
-0.17352358673262544
-0.17379225883886756
-0.17409144852323349
-0.17442115578572417
-0.17474268588780073
-0.17495032283779405
-0.17518847736591101
-0.17545714947215224
-0.17571764441797957
-0.17600865694193224
-0.1762914923054707
-0.17656615050859578
-0.17684299977524942
-0.17700595588982126
-0.17719942958251644
-0.17742342085333551
-0.17763923496374084
-0.17788556665227101
-0.17812372118038713
-0.17835369854809
-0.17858586697932149
-0.1788485529886791
-0.17910306183762237
-0.17934939352615198
-0.17959791627821026
-0.17983826186985585
-0.18008079852502989
-0.18032552624373308
-0.18056966686873255
-0.18123886252395782
-0.18179416502709428
-0.18223557437814347
-0.18270750130731689
-0.18306553508440462
-0.1834540864396163
-0.18387315537295304
-0.18428404714587537
-0.18458104576671377
-0.18490856196567582
-0.18526659574276241
-0.18561645235943486
-0.18599682655423322
-0.18636902358861704
-0.18673304346258734
-0.18709925440008607
-0.18735157218550302
-0.18763440754904304
-0.18794776049070708
-0.18825293627195722
-0.18858862963133252
-0.18891614583029356
-0.18923548486884126
-0.1895570149709174
-0.18990906265112056
-0.19025293317090891
-0.19058862653028347
-0.19092651095318661
-0.19125621821567715
-0.19158811654169594
-0.1919222059312439
-0.19225570822708798
-0.19247531737085291
-0.19272544409274037
-0.19300608839275096
-0.19327855553234793
-0.19358154025006932
-0.1938763478073767
-0.19416297820427089
-0.19445179966469359
-0.19477113870324225
-0.19508230058137649
-0.19538528529909716
-0.19569046108034638
-0.1959874597011832
-0.1962866493855483
-0.1965880301334425
-0.19688882378763289
-0.19722013501995156
-0.1975432690918551
-0.19785822600334446
-0.19817537397836255
-0.19848434479296767
-0.19879550667110119
-0.19910885961276392
-0.19942162546072281
-0.19972621414827041
-0.20003299389934595
-0.20034196471395033
-0.20065034843485094
-0.20096092321928152
-0.20127091091000804
-0.20158031150703143
-0.20188986941533776
-0.20262448235387837
-0.20324520214032776
-0.20375202877468768
-0.20428937298717226
-0.20471282404756919
-0.20516679268609045
-0.20565127890273738
-0.2061275879589696
-0.20649000386311628
-0.20688293734538685
-0.20730638840578247
-0.20772166230576372
-0.20816745378387164
-0.20860506810156462
-0.20903450525884398
-0.20946613347965171
-0.20978386854837638
-0.21013212119522437
-0.21051089142019672
-0.21088148448475491
-0.21128259512743891
-0.2116755286097084
-0.21206028493156434
-0.2124472323169487
-0.21286469728046098
-0.2132739850835581
-0.21367509572624116
-0.21407839743245277
-0.21447352197825187
-0.21487083758757899
-0.21527034426043534
-0.21566926383958768
-0.21595429026666041
-0.21626983427185559
-0.21661589585517416
-0.21695378027807891
-0.21732218227910843
-0.2176824071197237
-0.21803445479992581
-0.21838869354365628
-0.21877344986551345
-0.21915002902695585
-0.21951843102798457
-0.21988902409254171
-0.22025143999668656
-0.22061604696435949
-0.22098284499556159
-0.22134905593305973
-0.22174578444868734
-0.22213433580389944
-0.22251470999869707
-0.22289727525702333
-0.22327166335493664
-0.22364824251637819
-0.22402701274134901
-0.22440519587261581
-0.22477520184347161
-0.22514739887785515
-0.22552178697576747
-0.22589558797997594
-0.22627158004771467
-0.22664698502174907
-0.22702180290208032
-0.22739677809369443
-0.22765786013323319
-0.22794945975089337
-0.22827157694667571
-0.22858551698204466
-0.2289299745955371
-0.2292662550486157
-0.22959435834128139
-0.22992465269747542
-0.23028546463179478
-0.23063809940569979
-0.23098255701919151
-0.2313292056962116
-0.23166767721281961
-0.23200833979295576
-0.23235119343662092
-0.2326934599865822
-0.23306624411467142
-0.23343085108234551
-0.23378728088960557
-0.23414590176039424
-0.2344963454707702
-0.2348489802446744
-0.23520380608210781
-0.23555804482583725
-0.23590410640915591
-0.23625235905600234
-0.23660280276637741
-0.23695265938304871
-0.23730470706325005
-0.23765616764974723
-0.23800704114254126
-0.23835807194661818
-0.23873962032882673
-0.23911299155061916
-0.23947818561199657
-0.2398455707369028
-0.24020477870139539
-0.24056617772941646
-0.24092976782096703
-0.24129277081881353
-0.24164759665624835
-0.24200461355721109
-0.24236382152170283
-0.24272244239249066
-0.24308325432680883
-0.24344347916742273
-0.24380311691433343
-0.24416291197252699
-0.24451452987031144
-0.24486833883162312
-0.24522433885646314
-0.24557975178759942
-0.24593735578226528
-0.24629437268322713
-0.24665080249048596
-0.24700738960902766
-0.24736616779110088
-0.2477243588794695
-0.24808196287413453
-0.24843972418008259
-0.24879689839232849
-0.24915422991585701
-0.24951171875066919
-0.24986916543404925
-0.24864028514868491
-0.24783645989352868
-0.24745768966857815
-0.24696502629154632
-0.24689741794471931
-0.24671591644581056
-0.24642052179481966
-0.24615564472195314
-0.24631582267929145
-0.24636210748454759
-0.24629449913772172
-0.24625740836901969
-0.24610642444823522
-0.24598595810557491
-0.24589600934103839
-0.24579788341608888
-0.24612481252134555
-0.24633784847451934
-0.24643699127561083
-0.24656665165482591
-0.24658241888195903
-0.24662870368721584
-0.24670550607059638
-0.24677413129356363
-0.2467288633644488
-0.2467141130134578
-0.24672988024059056
-0.24673747030731011
-0.24677557795215355
-0.24680550843658366
-0.24682726176060057
-0.24685120614814651
-0.24730020556590121
-0.24763531183157211
-0.24785652494516014
-0.24810825563687169
-0.24824609317650104
-0.24841444829425388
-0.2486133209901307
-0.24880401652559386
-0.24888081890897545
-0.24898813887048049
-0.24912597641010933
-0.24925563678932464
-0.24941581474666424
-0.24956781554359023
-0.24971163918010292
-0.24985765388014444
-0.24988977542810492
-0.24995241455418876
-0.25004557125839622
-0.25013055080219038
-0.25024604792410843
-0.25035336788561302
-0.25045251068670443
-0.25055384455132473
-0.25068569599406965
-0.25080937027640088
-0.25092486739831871
-0.25104255558376543
-0.2511520666087993
-0.25126376869736194
-0.2513776618494537
-0.25149096790784203
-0.25202932899644315
-0.25245379693295916
-0.2527643717173913
-0.253105464079947
-0.25333266329042003
-0.25359038007901646
-0.25387861444573706
-0.25415867165204375
-0.25432483570626868
-0.25452151733861694
-0.25474871654908904
-0.2549677385991474
-0.25521727822733065
-0.25545864069509983
-0.25569182600245582
-0.25592720237334038
-0.25604868559214428
-0.25620068638907134
-0.25638320476412185
-0.25655754597875891
-0.25676240477152024
-0.25695908640386783
-0.25714759087580225
-0.25733828641126533
-0.25755949952485374
-0.25777253547802803
-0.25797739427078897
-0.25818444412707858
-0.25838331682295551
-0.25858438058236105
-0.25878763540529559
-0.25899030313452659
-0.25907907771167837
-0.25919836986695288
-0.25934817960035056
-0.25948981217333494
-0.259661962324443
-0.25982593531513748
-0.259981731145419
-0.2601397180392292
-0.26032822251116405
-0.26050854982268512
-0.26068069997379284
-0.26085504118842934
-0.26102120524265321
-0.26118956036040569
-0.26136010654168718
-0.26153006562926512
-0.26173054229496912
-0.26192284180025888
-0.26210696414513501
-0.26229327755353993
-0.26247141380153194
-0.26265174111305262
-0.26283425948810246
-0.26301619076944871
-0.26318994489038294
-0.26336589007484557
-0.26354402632283713
-0.2637215754771251
-0.2639013156949428
-0.26408046881905672
-0.2642590348494675
-0.26443775819116155
-0.2650415365630745
-0.26553142178290062
-0.26590741385064126
-0.26631392349650573
-0.26660653999028611
-0.2669296740621902
-0.2672833257122188
-0.26762880020183333
-0.26786038153936509
-0.2681224804550203
-0.26841509694879961
-0.26869953628216509
-0.26901449319365589
-0.26932127294473246
-0.26961987553539563
-0.26992066918958729
-0.27010756969169786
-0.27032498777193148
-0.27057292343028888
-0.27081268192823249
-0.27108295800430093
-0.27134505691995536
-0.27159897867519639
-0.27185509149396608
-0.27214172189086194
-0.27242017512734334
-0.27269045120341107
-0.2729629183430074
-0.27322720832219133
-0.27349368936490354
-0.27376236147114491
-0.27403044648368252
-0.27418463834414097
-0.27436934778272215
-0.27458457479942633
-0.2747916246557171
-0.27502919209013194
-0.27525858236413298
-0.27547979547772095
-0.27570319965483747
-0.27595712141007933
-0.27620286600490701
-0.27644043343932123
-0.27668019193726423
-0.2769117732747946
-0.27714554567585348
-0.27738150914044146
-0.27761688551132568
-0.27788277946033707
-0.27814049624893383
-0.27839003587711664
-0.27864176656882828
-0.2788853201001269
-0.27913106469495402
-0.27937900035331042
-0.27962634891796306
-0.27986552032220402
-0.2801068827899732
-0.28035043632127116
-0.28059340275886552
-0.28083856025998977
-0.2810831306674102
-0.28132711398112725
-0.28157125460612759
-0.28170150207905137
-0.2818622671300971
-0.28205354975926528
-0.28223665522802027
-0.28245027827489844
-0.28265572416136309
-0.28285299288741489
-0.2830524526769953
-0.2832824300447
-0.28350423025199084
-0.28371785329886856
-0.28393366740927495
-0.28414130435926893
-0.28435113237279136
-0.28456315144984279
-0.28477458343319056
-0.28501653299466445
-0.28525030539572405
-0.28547590063636996
-0.2857036869405446
-0.28592329608430644
-0.28614509629159685
-0.28636908756241641
-0.28659249173953233
-0.28680771875623662
-0.28702513683646913
-0.28724474598023048
-0.28746376803028822
-0.2876849811438757
-0.2879056071637594
-0.28812564608993985
-0.28834584232740351
-0.28859655614299551
-0.28883909279817249
-0.28907345229293535
-0.2893100028512271
-0.28953837624910539
-0.2897689407105124
-0.29000169623544869
-0.29023386466668127
-0.29045785593750173
-0.29068403827185058
-0.29091241166972831
-0.29114019797390245
-0.29137017534160647
-0.29159956561560657
-0.29182836879590357
-0.29205732928748368
-0.29227811261865322
-0.2925010870133507
-0.2927262524715768
-0.29295083083609935
-0.29317760026415129
-0.29340378259849947
-0.29362937783914467
-0.29385513039107292
-0.29408307400653183
-0.29431043052828665
-0.29453719995633804
-0.29476412669567265
-0.29499046634130477
-0.29521696329821989
-0.29544361756641868
-0.29567022968318551
-0.29632189683017995
-0.29685967082508508
-0.29728355166790249
-0.29773795008884429
-0.29807845535769983
-0.29844947820467954
-0.29885101862978447
-0.29924438189447494
-0.29952385200708082
-0.29983383969781052
-0.30017434496666506
-0.30050667307510537
-0.30086951876167173
-0.30122418728782352
-0.3015706786535618
-0.30191936108282852
-0.30215415036001259
-0.3024194572153201
-0.30271528164875178
-0.30300292892176955
-0.30332109377291261
-0.30363108146364137
-0.30393289199395679
-0.30423689358780065
-0.30457141275977168
-0.30489775477132786
-0.30521591962247024
-0.30553627553714119
-0.30584845429139951
-0.3061628241091861
-0.30647938499050192
-0.30679535877811387
-0.30699743941364571
-0.30723003762730033
-0.30749315341907846
-0.30774809205044285
-0.30803354825993179
-0.30831082730900672
-0.30857992919766852
-0.30885122214985877
-0.30915303268017513
-0.30944666605007698
-0.30973212225956526
-0.31001976953258215
-0.31029923964518663
-0.31058090082131939
-0.31086475306098116
-0.31114801820693921
-0.31146180093102555
-0.31176740649469675
-0.31206483489795378
-0.31236445436473959
-0.31265589667111243
-0.31294953004101372
-0.31324535447444413
-0.31354059181417077
-0.31382765199348595
-0.31411690323632918
-0.31440834554270125
-0.31469920075536956
-0.31499224703156786
-0.31528470621406218
-0.31557657830285324
-0.31586860770292746
-0.31604674395092469
-0.31625539777704398
-0.31649456918128577
-0.31672556342511421
-0.31698707524706615
-0.31724040990860441
-0.31748556740972977
-0.31773291597438363
-0.31801078211716238
-0.31828047109952706
-0.31854198292147845
-0.31880568580695845
-0.3190612115320261
-0.31931892832062209
-0.31957883617274713
-0.3198381569311684
-0.32012799526771668
-0.32040965644385033
-0.32068314045957003
-0.3209588155388185
-0.32122631345765418
-0.32149600244001825
-0.32176788248591159
-0.32203917543810107
-0.32230229122987919
-0.32256759808518537
-0.32283509600402033
-0.32310200682915163
-0.32337110871781283
-0.32363962351277004
-0.32390755121402409
-0.3241756362265612
-0.32447423881722814
-0.32476466424747968
-0.32504691251731654
-0.32533135185068229
-0.32560761402363453
-0.32588606726011538
-0.32616671156012561
-0.32644676876643203
-0.32671864881232637
-0.326992719921749
-0.32726898209470051
-0.32754465717394832
-0.32782252331672623
-0.32809980236580011
-0.32837649432117078
-0.3286533435878245
-0.32892201569406809
-0.32919287886383941
-0.32946593309713923
-0.32973840023673545
-0.33001305843986117
-0.33028712954928308
-0.33056061356500183
-0.33083425489200369
-0.33111008728253644
-0.33138533257936498
-0.33165999078249003
-0.33193480629689831
-0.3322090347176041
-0.33248342044959284
-0.33275796349286518
-0.33303246438470557
-0.33319307212447336
-0.33338419744236208
-0.33360584033837209
-0.33381930607396909
-0.33406328938768848
-0.33429909554099452
-0.33452672453388788
-0.33475654459030973
-0.33501688222485521
-0.335269042698987
-0.33551302601270577
-0.33575920038995311
-0.33599719760678831
-0.33623738588715191
-0.33647976523104445
-0.33672155748123334
-0.33699386730954767
-0.33725799997744782
-0.33751395548493451
-0.33777210205594976
-0.33802207146655266
-0.33827423194068384
-0.33852858347834414
-0.33878234792230077
-0.33902793520584612
-0.33927571355291952
-0.3395256829635217
-0.33977506528042034
-0.34002663866084865
-0.34027762494757302
-0.3405280241405943
-0.34077858064489863
-0.34105965472733113
-0.34133255164934873
-0.34159727141095214
-0.34186418223608434
-0.34212291590080335
-0.34238384062905097
-0.34264695642082788
-0.34290948511890096
-0.34316383665656225
-0.34342037925775171
-0.34367911292247011
-0.3439372594934848
-0.34419759712802944
-0.3444573476688701
-0.34471651111600754
-0.34497583187442815
-0.3452269754724388
-0.34548031013397718
-0.34573583585904394
-0.34599077449040722
-0.34624790418529983
-0.34650444678648862
-0.34676040229397442
-0.34701651511274323
-0.34727481899504287
-0.3475325357836383
-0.3477896654785303
-0.34804695248470552
-0.34830365239717825
-0.34856050962093388
-0.34881752415597311
-0.3490744965395805
-0.34936198650131967
-0.34964129930264293
-0.34991243494355101
-0.35018576164798809
-0.35045091119201116
-0.35071825179956295
-0.3509877834706443
-0.35125672804802177
-0.35151749546498651
-0.35178045394547969
-0.35204560348950209
-0.35231016593982067
-0.35257691945366948
-0.35284308587381419
-0.35310866520025569
-0.3533744018379803
-0.35363196131529406
-0.35389171185613577
-0.35415365346050609
-0.35441500797117287
-0.35467855354536926
-0.35494151202586177
-0.35520388341265119
-0.35546641211072361
-0.35573113187232713
-0.3559952645402264
-0.35625881011442212
-0.35652251299990106
-0.35678562879167752
-0.35704890189473693
-0.35731233230907999
-0.35757572057199116
-0.35783093167449387
-0.35808833384052391
-0.3583479270700819
-0.35860693320593651
-0.35886813040532006
-0.35912874051100002
-0.35938876352297688
-0.35964894384623686
-0.35991131523302716
-0.36017309952611343
-0.36043429672549643
-0.36069565123616254
-0.36095641865312628
-0.3612173433813729
-0.36147842542090319
-0.36173946530900153
-0.36200269626063203
-0.36226534011855799
-0.36252739688278018
-0.3627896109582856
-0.36305123794008831
-0.36331302223317391
-0.36357496383754329
-0.36383686329048071
-0.36409817564971664
-0.36435964532023524
-0.36462127230203722
-0.36488285713240737
-0.36514459927406179
-0.36540629926428408
-0.36566795710307498
-0.36592962623630737
-0.3133340747946165
-0.2749015729201969
-0.25063212061293966
-0.22256769061186085
-0.20866631017786536
-0.19096995205004799
-0.16947861622835869
-0.14900414161507797
-0.14269271656882332
-0.13258631382874647
-0.11868493339481878
-0.10580041416927832
-0.089120917249829373
-0.073458281538788847
-0.058812507036112419
-0.04389426539387143
-0.04313907331861544
-0.038588903549536722
-0.0302437560866224
-0.022915469832079705
-0.011792205883665233
-0.0016858031436378347
0.0074037383880310812
0.016765747059274555
0.029922733424452824
0.042062858581222926
0.053186122529619198
0.064581853617589918
0.074960723497228751
0.085612060516432345
0.096535864675230842
0.10738666148398847
0.10407440872578996
0.10455713366141485
0.10883483629086453
0.1120956777119539
0.11915149682688855
0.12519045473345164
0.13021255143166027
0.13550711526945078
0.14459665680112813
0.15266933712441857
0.15972515623934497
0.16705344249385162
0.17336486754002042
0.17994875972576399
0.186805119051101
0.19358847102640594
0.2041668006956644
0.21372826915651502
0.22227287640898485
0.23108995080103631
0.238890163984739
0.24696284430801632
0.25530799177089109
0.26358013188372964
0.27083541078825935
0.27836315683235413
0.2861633700160352
0.2938905758496842
0.30189024882295001
0.3098169144461751
0.31767057271938187
0.32554379325305133
0.31925396421978414
0.31675911288034125
0.31805923923471574
0.31834250438073808
0.32242074722058661
0.32548212885207495
0.32752664927521158
0.32984363683793561
0.33595560209451159
0.34105070614271621
0.34512894898256391
0.34947965896199618
0.35281350773308601
0.35641982364375802
0.36029860669402236
0.36410438239426113
0.3717051357883972
0.37828902797414671
0.38385605895152819
0.38969555706849407
0.39451819397711241
0.3996132980253112
0.40498086921310489
0.41027543305086922
0.41455313568031021
0.41910330544932634
0.42392594235793046
0.42867557191650818
0.43369766861469272
0.43864675796284541
0.4435228399609803
0.44841848421958369
0.45710910617215383
0.46478286691631654
0.47143976645209329
0.47836913312745699
0.48428163859445983
0.49046661120104446
0.4969240509472283
0.50330848334337941
0.50867605453119946
0.51431609285859448
0.52022859832558033
0.52606809644253683
0.53218006169910714
0.53821901960564145
0.54418497016215683
0.55017048297913895
0.55513913458782849
0.56038025333608354
0.56589383922391878
0.57133441776172833
0.57704746343913971
0.58268750176651918
0.58825453274388262
0.59384112598171268
0.5997001863591751
0.60548623938659718
0.61119928506399523
0.6169318930018618
0.62259149358972643
0.62827065643805391
0.63396938154685989
0.63966286496375691
0.63119329881372932
0.62651871035752738
0.62563909959513775
0.62374262762440191
0.62564113334747917
0.62652277786220412
0.62638756116857919
0.62652481161454565
0.63045703975433953
0.63337240668577299
0.63527091240885447
0.63744188527152379
0.63859599692584723
0.64002257571975829
0.64172162165326108
0.64334766023674284
0.64876867651408143
0.65317283158304873
0.65656012544365738
0.66021988644385232
0.66286278623570061
0.66577815316713362
0.6689659872381597
0.67208081395916131
0.67417877947182903
0.67654921212407915
0.67919211191591855
0.68176200435773571
0.68460436393915247
0.68737371617054388
0.6900700610519177
0.69278596819376459
0.69929685302951605
0.70479087665688112
0.70926803907587554
0.71401766863445726
0.71775043698468455
0.72175567247449635
0.72603337510390409
0.73023807038328448
0.73342590445432887
0.73688620566495411
0.74061897401516974
0.74427873501536068
0.74821096315515678
0.75207018394492398
0.75585639738467258
0.75966217308489226
0.7624510875767988
0.76551246920828075
0.76884631797934677
0.77210715940039032
0.77564046796103159
0.7791007691716465
0.78248806303224494
0.78589491915331489
0.78957424241400109
0.79318055832465562
0.79671386688528867
0.80026673770639412
0.80374660117749186
0.80724602690905867
0.81076501490110409
0.81427876120124476
0.8215874851953604
0.8278793479810691
0.83315434955838885
0.8387018182752991
0.84323242578383995
0.84803550043196774
0.85311104221969614
0.85811357665739418
0.86209924988674524
0.86635739025567837
0.87088799776420556
0.87534559792270528
0.88007566522081682
0.88473272516889589
0.88931677776695561
0.89392039262548495
0.89750714627569561
0.90136636706548146
0.9054980549948537
0.90955673557420147
0.91388788329315163
0.91814602366207254
0.92233115668097621
0.92653585196035004
0.93101301437934914
0.93541716944831244
0.93974831716725271
0.94409902714666405
0.94837672977606902
0.95267399466594049
0.95699082181629136
0.96130240727473559
0.96459713152489834
0.96816432291462706
0.97200398144393163
0.97577063262321528
0.97980975094209
0.98377586191093935
0.98766896552977412
0.99158163140907851
0.99576676442799594
0.99987889009688136
1.0039180084157469
1.0079766889950834
1.0119623622244154
1.0159675977142142
1.0199923954644916
1.0240119515228632
1.0283039747208778
1.0325229905688522
1.0366689990667988
1.0408345698252182
1.0449271332336254
1.0490392589025013
1.0531709468318575
1.0572973930693077
1.061350831956767
1.0654238331046899
1.0695163965130867
1.073603718229579
1.0777106022065617
1.0818122444916356
1.0859086450848117
1.0900064501850903
1.0799412057184501
1.0736709389456371
1.071195649866634
1.0677034995792885
1.0680063269857474
1.0672922931838595
1.0655613981736234
1.0641029703029814
1.066439520126149
1.0677592087409644
1.0680620361474313
1.0686373306934882
1.0681957640311968
1.068026664508497
1.0681300321253882
1.068160392392262
1.0719857303529641
1.0747942071053058
1.0765858226492953
1.0786499053328726
1.0796971268081035
1.0810168154229225
1.082608971177333
1.0841281195817229
1.084630406777771
1.085405161113407
1.086452382588633
1.0874265967138397
1.0886732779786408
1.0898469518934213
1.0909476184581848
1.0920678472834244
1.0969830538025236
1.1008813991132522
1.1037628832156205
1.1069168344575768
1.109053924491183
1.111463481664376
1.1141455059771623
1.1167545229399254
1.1183466786943486
1.120211301588357
1.1223483916219554
1.1244124743055326
1.1267490241287088
1.1290125666018607
1.1312031017249948
1.1334131991086032
1.1346064352838829
1.1360721385987453
1.1378103090531948
1.1394754721576248
1.1414131024016487
1.1432777252956505
1.1450693408396357
1.1468805186440956
1.14896416358816
1.1509748011821994
1.1529124314262194
1.1548696239307144
1.1567538090851974
1.1586575565001538
1.1605808661755888
1.1624989341591223
1.1682119798365651
1.1729081643056218
1.176587487566306
1.1805392779665795
1.1834742071584941
1.1866816034899959
1.1901614669610945
1.1935683230821672
1.1959583179948945
1.1986207800472071
1.2015557092391116
1.2044176310809926
1.2075520200624776
1.2106134016939356
1.2136017759753748
1.2166097125172868
1.2186007878508709
1.2208643303240361
1.2234003399367888
1.2258633421995198
1.2285988116018487
1.2312612736541526
1.2338507283564397
1.2364597453192001
1.2393412294215724
1.2421497061739157
1.2448851755762387
1.2476402072390351
1.2503222315518214
1.253023818125079
1.2557449669588152
1.2584608741006484
1.2601599200341744
1.2621314331072766
1.2643754133199607
1.2665463861826254
1.2689898261848804
1.2713602588371136
1.2736576841393308
1.2759746717020217
1.2785641264043164
1.2810805737565851
1.2835240137588348
1.2859870160215585
1.2883770109342729
1.2907865681074588
1.2932156875411231
1.2956395652828852
1.2983359101642693
1.3009592476956224
1.3035095778769517
1.3060794703187559
1.3085763554105467
1.3110928027628097
1.3136288123755524
1.3161595802963921
1.318617340867231
1.321094663698539
1.3235915487903231
1.3260831921902052
1.3285943978505734
1.3311003618190371
1.3336010840956034
1.3361032108792754
1.3424003153569268
1.3476805586261724
1.3519439406870268
1.3564797898874745
1.3599987778795468
1.3637902330112097
1.3678541552824739
1.3718450702037099
1.3748191239165877
1.3780656447690525
1.3815846327611137
1.3850306134031487
1.3887490611847941
1.3923945016164097
1.3959669346980053
1.3995589300400728
1.4021340641738032
1.4049816654471159
1.4081017338600188
1.4111487949228985
1.4144683231253807
1.4177148439778358
1.4208883574802729
1.4240814332431824
1.4275469761457118
1.4309395116982093
1.434259039900684
1.4375981303636318
1.4408642134765701
1.4441498588499782
1.4474550664838652
1.4507550324258482
1.4530381371595205
1.4555937090327689
1.4584217480456003
1.4611767797084108
1.4642042785108151
1.4671587699631949
1.4700402540655593
1.472941300428396
1.4761148139308427
1.4792153200832607
1.4822428188856582
1.485289879948529
1.4882639336613912
1.4912575496347236
1.4942707278685341
1.4972786644104414
1.5005590680919825
1.5037664644234883
1.5069008534049675
1.5100548046469211
1.5131357485388603
1.5162362546912709
1.5193563231041622
1.5224711498251493
1.5255129691961378
1.5285743508275933
1.5316552947195254
1.5347309969195542
1.5378262613800702
1.5409162841486801
1.5440010652253933
1.5470872508092104
1.5491565751847525
1.5514983666998616
1.5541126253545441
1.5566538766592084
1.5594675951034564
1.5622083061976835
1.5648760099418972
1.567563275946583
1.5705230090908677
1.5734097348851268
1.5762234533293689
1.579056734034084
1.5818170073887918
1.5845968430039699
1.5873962408796261
1.5901903970633793
1.5932570203867529
1.596250636360095
1.5991712449834141
1.6021114158672072
1.6049785794009885
1.6078653051952412
1.6107715932499733
1.6136726396128018
1.6165006786256333
1.619348279898932
1.6222154434327063
1.6250773652745782
1.6279588493769364
1.6308350917873891
1.6337060925059448
1.6365784977316054
1.6397233700969158
1.6427952351121866
1.6457940927774266
1.648812512703143
1.6517579252788397
1.6547229001150097
1.6577074372116609
1.6606867326164081
1.6635930206711511
1.6665188709863634
1.669464283562053
1.6724044544458392
1.6753641875901144
1.6783186790424831
1.6812679288029542
1.6842185830705301
1.6870962299881227
1.6899934391661788
1.6929102106047069
1.6958217403513336
1.6987528323584429
1.7016786826736476
1.7045992912969561
1.7075213044273694
1.710462879818281
1.7133992135172835
1.7163303055243859
1.7192628020385938
1.7221900568609123
1.7251187161903339
1.728048780026866
1.7309784675268463
1.6250210599396488
1.5482398615473638
1.5006348723497749
1.4452121414603876
1.4189656197655414
1.3849013563788941
1.3430193513003492
1.303232103794864
1.2926210654838151
1.2741922854809606
1.2479457637862486
1.223793999664553
1.1918244938508904
1.1619497456102854
1.1341697549426535
1.1058284756750638
1.106663405601843
1.099680593836811
1.0848800403799481
1.0721742444960709
1.0516507069202978
1.0332219269175393
1.0168879044877437
0.99999259345796931
0.9752795407361815
0.95266124558744858
0.93213770801170703
0.91105288183598754
0.89206281323318204
0.87251145603041613
0.85239881022763475
0.83243656125198939
0.84165052147067732
0.84304673999754653
0.83662521683260072
0.83229845124061885
0.82015394395678909
0.81010419424594415
0.80214920210805518
0.79363292137017183
0.77729889894036774
0.76305963408357647
0.75091512679975769
0.73820933091594876
0.72759829260506792
0.71642596569420558
0.70469235018333021
0.69310913149957309
0.67370817112377512
0.65640196832102848
0.64119052309128433
0.62541778926154834
0.6117398130047581
0.59750054814798803
0.58269999469119793
0.56804983806153431
0.5554944390047466
0.54237775134799537
0.52869977509124377
0.51517219566161088
0.5010833276319242
0.48714485642937139
0.47335678205391307
0.45952840897011932
0.47487624508065063
0.48240633949935252
0.48211869222624631
0.48392580252608952
0.47791517113411547
0.47399929731510515
0.47217818106904758
0.46979577622298374
0.45959562968506207
0.45149024072012373
0.44547960932814568
0.43890768933616808
0.43443052691712991
0.42939207589809458
0.42379233627904778
0.41834299348710602
0.40507590900323032
0.39390358209236476
0.38482601275447748
0.37518715481659221
0.36764305445165246
0.35953766548672023
0.35087098792177268
0.34235470718393746
0.33593318401901051
0.32895037225409873
0.32140627188918242
0.31401256835137331
0.30605757621353002
0.29825298090280267
0.29059878241916925
0.28290428522718769
0.2673920463431535
0.25397456503216576
0.24265184129418665
0.23076782895620601
0.22097857419119241
0.21062803082618525
0.19971619886115527
0.18895476372324432
0.18028808615825115
0.17106011999327525
0.16127086522829062
0.15163200729041892
0.14143186075250011
0.13138211104170539
0.12148275815800633
0.1115431065659634
0.10369821254677637
0.095292029927621535
0.086324558708475121
0.077507484316435366
0.06812912132436881
0.058901155159419197
0.049823585821560434
0.040705717775357399
0.03102656112907741
0.021497801309928427
0.012119438317883497
0.0027007766174913734
-0.0065674882558327714
-0.015876051837494676
-0.025224914127520662
-0.034562978411165152
-0.014724833500465365
-0.0027044302816094292
0.0014982312454366559
0.0077956503454233717
0.0062753277536083795
0.0068497627347436866
0.0095189552888309166
0.011626859242902847
0.0059170215051561528
0.002301941340372966
0.00078161874854305868
-0.0012999924432938398
-0.0012868460621811627
-0.001834988281077659
-0.00294441909998488
-0.0039034530917965819
-0.012680228775470533
-0.019362246886162938
-0.023949507423892701
-0.029098056561625604
-0.032151848126411427
-0.035766928291199401
-0.039943297055999756
-0.043969268993697797
-0.045900483358462495
-0.048392986323227999
-0.051446777888001338
-0.054350172625675902
-0.057814855963370701
-0.061129142473962561
-0.06429303215746085
-0.067497220549316395
-0.078519150633108811
-0.087446323143895027
-0.094278738081700314
-0.101672441619509
-0.10697138758436098
-0.11283162214921302
-0.11925314531408177
-0.12552427165184241
-0.1297006404166719
-0.13443829778149693
-0.13973724374633095
-0.14488579288406123
-0.15059563062182152
-0.15615507153247157
-0.16156411561602721
-0.16701345840793566
-0.17036804362694241
-0.17428391744593855
-0.17876107986493511
-0.18308784545683196
-0.18797589964874711
-0.19271355701355689
-0.19730081755127471
-0.20192837679734643
-0.20711722464346288
-0.21215567566246626
-0.21704372985437079
-0.22197208275463037
-0.22675003882780992
-0.23156829360933978
-0.23642684709923351
-0.24127460258275515
-0.25394009975832649
-0.26451083936085801
-0.27298682139037966
-0.28202409201990897
-0.28896660507645899
-0.29647040673301173
-0.30453549698958848
-0.3124501904190517
-0.31827012627556989
-0.32465135073208395
-0.33159386378861194
-0.3383859800180315
-0.34573938484749234
-0.35294239284983653
-0.3599950040250845
-0.3670879139086824
-0.37208606621937645
-0.37764550713005707
-0.38376623664074
-0.38973656932431922
-0.39626819060792495
-0.4026494150644197
-0.40888024269382156
-0.41515136903157407
-0.42198378396938824
-0.42866580208008143
-0.43519742336367245
-0.44176934335561613
-0.44819086652048273
-0.45465268839369533
-0.46115480897527245
-0.46764613155047385
-0.47204269655282383
-0.47700055015514747
-0.48251969235745895
-0.48788843773267188
-0.49381847170789456
-0.49959810885601197
-0.50522734917704049
-0.51089688820641999
-0.51712771583584094
-0.52320814663814763
-0.52913818061335705
-0.535108513296919
-0.54092844915340643
-0.54678868371824052
-0.55268921699143791
-0.55857895225826115
-0.56502997612517103
-0.5713306031649541
-0.57748083337762779
-0.5836713622986569
-0.5897114943926004
-0.5957919251948931
-0.60191265470555222
-0.60802258620983585
-0.61398212088706572
-0.61998195427263647
-0.62602208636656487
-0.63205142045412033
-0.63812105325005697
-0.64417988803961423
-0.65022792482280944
-0.65627885492307669
-0.63315357582895149
-0.61784603842668995
-0.61035624271624866
-0.60077168943287074
-0.59900487784129219
-0.59514330867677068
-0.58918698193929542
-0.58379194380184285
-0.58621464735618933
-0.58654259333758441
-0.58477578174602884
-0.58357025875448632
-0.58026997818998427
-0.57753098622550092
-0.57535328286102849
-0.57302518266946734
-0.57851482416972488
-0.58190970809701936
-0.58320983445136054
-0.58507124940570909
-0.5848379067871069
-0.58516585276851474
-0.58605508734993328
-0.58679392510425676
-0.58543800528562606
-0.58464337406700861
-0.58441003144840209
-0.58402629200270273
-0.58420384115701407
-0.58423099348423169
-0.5841077489843558
-0.58402480319284411
-0.59175959909319342
-0.59739963742056379
-0.60094491817497098
-0.60505148752938365
-0.60706329931084457
-0.6096363996923112
-0.61277078867379042
-0.61575478082816959
-0.61664401540960523
-0.61809453859104657
-0.62010635037249773
-0.62196776532685172
-0.62439046888122374
-0.62666277560849559
-0.62878468550867361
-0.63094689411721117
-0.63101434515281107
-0.63164308478841669
-0.63283311302403011
-0.6338727444325486
-0.63547366444107978
-0.63692418762251379
-0.63822431397685497
-0.63956473903955702
-0.64146645270228109
-0.64321776953790499
-0.64481868954643362
-0.64645990826332311
-0.64795073015312366
-0.64948185075128362
-0.65105327005780733
-0.65261389135796588
-0.66199225435005415
-0.6692758597691415
-0.67446470761524857
-0.68021484406136223
-0.68387022293451372
-0.68808689040767013
-0.69286484648084334
-0.69749240572691185
-0.70002520740003493
-0.70311929767316084
-0.70677467654629811
-0.71027965859233455
-0.71434592923839701
-0.71826180305735376
-0.7220272800492159
-0.72583305574943435
-0.72754407387672482
-0.7298163806040151
-0.73264997593131154
-0.73533317443151025
-0.73857766153172655
-0.74167175180484102
-0.74461544525086254
-0.74759943740524171
-0.75114471815965622
-0.75453960208696358
-0.75778408918717344
-0.76106887499574138
-0.76420326397722405
-0.7673779516670618
-0.77059293806526385
-0.77379712645709686
-0.77490655727602198
-0.77657727669494292
-0.77880928471386413
-0.78089089590569027
-0.78353379569752601
-0.78602629866226348
-0.78836840479990955
-0.79075080964591404
-0.79369450309194267
-0.79648779971086836
-0.79913069950269899
-0.80181389800288838
-0.8043466996759927
-0.80691980005745356
-0.80953319914727762
-0.81213580023073439
-0.81529968991423685
-0.81831318277063025
-0.82117627879992305
-0.8240796735375755
-0.82683267144813821
-0.82962596806705802
-0.83245956339434279
-0.83528236071525941
-0.83795476120910051
-0.84066746041129492
-0.84342045832185064
-0.84616265822603931
-0.84894515683859983
-0.85171685744479042
-0.85447776004461851
-0.85724155596152563
-0.8678230935704645
-0.8763098736063728
-0.88270189606927452
-0.88965520713218726
-0.89451376062211585
-0.89993360271205258
-0.90591473340201345
-0.91174546726486505
-0.91548144355475558
-0.91977870844465037
-0.92463726193456208
-0.92934541859736874
-0.93461486386021175
-0.93973391229594372
-0.94470256390457918
-0.94971151422156885
-0.95262570696562399
-0.95610118830967827
-0.96013795825374149
-0.96402433137070331
-0.96847199308769061
-0.97276925797757141
-0.97691612604035816
-0.98110329281150022
-0.98585174818269161
-0.99044980672676985
-0.99489746844374727
-0.99938542886908155
-1.0037229924673321
-1.008100854773935
-1.0125190157889021
-1.0169263787974978
-1.019238984233191
-1.0221128782688758
-1.0255480609045606
-1.028832846713148
-1.0326789211217493
-1.0363745987032487
-1.0399198794576563
-1.04350545892042
-1.0476523269832181
-1.0516487982189082
-1.0554948726275013
-1.0593812457444511
-1.0631172220343188
-1.0668934970325394
-1.0707100707391237
-1.0745158464393381
-1.0788829107396176
-1.0830995782127801
-1.0871658488588376
-1.0912724182132538
-1.0952285907405805
-1.0992250619762618
-1.1032618319203089
-1.107287803857985
-1.1111633789685924
-1.1150792527875488
-1.1190354253148656
-1.122980799835813
-1.1269664730651361
-1.1309413482880855
-1.1349054255046727
-1.1388723960383365
-1.140744608999138
-1.1431781105599215
-1.1461729007206936
-1.1490172940543721
-1.1524229759880515
-1.1556782610946332
-1.1587831493741265
-1.1619283363619759
-1.1656348119498448
-1.1691908907106106
-1.1725965726442831
-1.1760425532863119
-1.179338137101261
-1.1826740196245633
-1.1860502008562288
-1.1894155840815253
-1.1933422559068678
-1.1971185309050998
-1.2007444090762311
-1.2044105859557208
-1.2079263660081241
-1.2114824447688821
-1.2150788222380049
-1.2186644017007577
-1.2220995843364424
-1.2255750656804771
-1.2290908457328715
-1.2325958277788975
-1.236141108533297
-1.2396755912813247
-1.2431992760229902
-1.246725854081733
-1.2508137207405596
-1.2547511905722653
-1.2585382635768605
-1.2623656352898163
-1.2660426101756763
-1.2697598837698933
-1.2735174560724773
-1.2772642303686907
-1.2808606078378273
-1.2844972840153159
-1.2881742589011664
-1.2918404357806477
-1.2955469113685054
-1.2992425889499901
-1.302927468525112
-1.3066152414173111
-1.3101526174824594
-1.3137302922559531
-1.3173482657378015
-1.3209554412132829
-1.3246029153971333
-1.3282395915746126
-1.3318654697457315
-1.335494241233927
-1.3391633114305104
-1.3428215836207178
-1.3464690578045595
-1.3501194253054791
-1.3537589948000468
-1.3574014576116891
-1.3610468137404157
-1.3646913946071586
-1.2858774906742647
-1.2291582711526248
-1.1945337360420787
-1.1539889480866488
-1.1355388445422017
-1.111168488152867
-1.0808778789185758
-1.0521735966531367
-1.0455639987986085
-1.0330341480991874
-1.0145840445548382
-0.99772026797930913
-0.97493623855877409
-0.95373853610708903
-0.93412716062419365
-0.91409073011112141
-0.91614898400891887
-0.91228698506181671
-0.90250473326980396
-0.89430880844658844
-0.88019263077841847
-0.86766278007906672
-0.85671925634849733
-0.84535067758773497
-0.82806184598193688
-0.81235934134498522
-0.79824316367683568
-0.78370193097849439
-0.77074702524890215
-0.75736706448913016
-0.74356204869914033
-0.72987092606126436
-0.7382744878342451
-0.74075779676231646
-0.73732085284548554
-0.73547023589743665
-0.72769936610446595
-0.72151482328029148
-0.71691660742489571
-0.71189333653929487
-0.70094981280872437
-0.69159261604696953
-0.68382174625400394
-0.67562582143083683
-0.66901622357643031
-0.66198157069182773
-0.65452186277700908
-0.64717604801429074
-0.63390998040652202
-0.62223023976759528
-0.61213682609747777
-0.60161835739715819
-0.59268621566561008
-0.58332901890386779
-0.57354676711190478
-0.56387840847204806
-0.55579637680091776
-0.54728929009960348
-0.53835714836808124
-0.52953889978866009
-0.52029559617899612
-0.51116618572144323
-0.50215066841597578
-0.4931046335324023
-0.50615328305969864
-0.51328167974207251
-0.51448982357954409
-0.51728429438578816
-0.51415851234712828
-0.51261905727725021
-0.51266592917614962
-0.51228774604483462
-0.50598931006859249
-0.50127720106114504
-0.49815141902247873
-0.49460058195360357
-0.49263607185349928
-0.49024650672318637
-0.48743188656265823
-0.48473115955422058
-0.4761101797008086
-0.46907552681620868
-0.46362720090040088
-0.45775381995438608
-0.45346676597714397
-0.4487546569696978
-0.4436174929320339
-0.43859422204646598
-0.43515727812964988
-0.43129527918263333
-0.42700822520540566
-0.4228350643802703
-0.41823684852490672
-0.41375252582164063
-0.40938209627045963
-0.40498114914116307
-0.39465994916681635
-0.3859250761613055
-0.37877653012460594
-0.37120292905769781
-0.36521565495957481
-0.35880332583124774
-0.35196594167269846
-0.34524245066624987
-0.34010528662855677
-0.33454306756066582
-0.32855579346256125
-0.32268241251655327
-0.31638397654030814
-0.31019943371616654
-0.30412878404411103
-0.2980276167939433
-0.29351277651249441
-0.28857288120085617
-0.28320793085901469
-0.27795687366926575
-0.27228076144929231
-0.26671854238141773
-0.26127021646562626
-0.25579137297172205
-0.24988747444756293
-0.24409746907551122
-0.23842135685555069
-0.2327147270574757
-0.22712199041147008
-0.22149873618735572
-0.21584496438511669
-0.21019936974330283
-0.22664845951239945
-0.23717729643655566
-0.24178588051580122
-0.24798079156381436
-0.24825544976692859
-0.2501164349388163
-0.25356374707948259
-0.25658600418992711
-0.2536880084554673
-0.25237633968978895
-0.25265099789288836
-0.25250060106577277
-0.25393653120743764
-0.25494740631888435
-0.25553322640011572
-0.25623293963343052
-0.2510124000218184
-0.24737818737899858
-0.24533030170496078
-0.2428573610007117
-0.24197074726523832
-0.24065907849955293
-0.2389223547036517
-0.23729952405983884
-0.23726302038479891
-0.23680146167954585
-0.23591484794407847
-0.23514212736069728
-0.23394435174709788
-0.23286046928558635
-0.23189047997615969
-0.23088997308861053
-0.22396921335609193
-0.21863478059238056
-0.21488667479746132
-0.21071351397233157
-0.20812668011598107
-0.20511479122942106
-0.2016778473126431
-0.1983547965479576
-0.19661807275203955
-0.19445629392591338
-0.19186946006957301
-0.18939651936532237
-0.18649852363084712
-0.18371442104846497
-0.18104421161816808
-0.17834348460975216
-0.17722908457009162
-0.17568962950022493
-0.17372511940014779
-0.17187450245215802
-0.16959883047394972
-0.16743705164783165
-0.16538916597379769
-0.16331076272164369
-0.16080730443925861
-0.1584177393089676
-0.15614206733076388
-0.15383587777443972
-0.15164358137019418
-0.14942076738783036
-0.14716743582734199
-0.1449222814272717
-0.13675687418216559
-0.13017779390588705
-0.12518504059841751
-0.11976723226073548
-0.11593575089184478
-0.11167921449274396
-0.10699762306342092
-0.10242992478619407
-0.09944855347774012
-0.096042127139079211
-0.092210645770201688
-0.088493057553417104
-0.08435041430640064
-0.080321664211481833
-0.076406807268649291
-0.072461432747700005
-0.070102385195502603
-0.067318282613102576
-0.06410912500049204
-0.061013860539971515
-0.057493541049227631
-0.054087114710577824
-0.050794581524012478
-0.047471530759329583
-0.043723424964404255
-0.040089212321578596
-0.036568892830842324
-0.033018055761987644
-0.029581111845208868
-0.026113650350315123
-0.022615671277296606
-0.019125869364698796
-0.017222394420827264
-0.014893864446759025
-0.012140279442487485
-0.0095005875903030664
-0.0064358407079042734
-0.0034849869775962147
-0.00064802639937054348
0.0022194517569730731
0.0055119849435477253
0.0086906249780267057
0.011755371860419006
0.014850636320929931
0.017832007629365904
0.020843896515917528
0.02388630298059332
0.026920532284849516
0.030379816619360626
0.033725207801769318
0.03695670583208506
0.040218721440520758
0.043366843896875881
0.046545483931347817
0.049754641543945564
0.052955621996122922
0.056042709296236184
0.059160314174461978
0.062308436630809122
0.065448381926737201
0.068618844800798801
0.071781130514438032
0.074935239067663834
0.078091538684412265
0.059153153890177876
0.046135021940908433
0.039037142836567118
0.030352936763458675
0.027588983535257086
0.02323870333828509
0.017302096172530382
0.011790544037003735
0.012199244746376077
0.011021618486973552
0.0082576652587928352
0.0059187670608324035
0.0019935418940814566
-0.0015066282424434992
-0.004581743348752363
-0.0077707516071397094
-0.0050395070206232691
-0.0038945894028877873
-0.0043359987539300284
-0.0043523530747569183
-0.0059550343643648782
-0.0071326606237541853
-0.0078852318529281738
-0.0087516962341852456
-0.011204487584233648
-0.013232223904058888
-0.014834905193666703
-0.016551479635356407
-0.017842999046834437
-0.019248411610393458
-0.020767717326037442
-0.022256505463553771
-0.01782504075614837
-0.014979903017532253
-0.013721092247697381
-0.012037226447649731
-0.011939687616380108
-0.011417093754896168
-0.010469444863196438
-0.009635689123583438
-0.010388260352749742
-0.01071577655169963
-0.010618237720434028
-0.010634592041253312
-0.01022589133185629
-0.0099310837745450187
-0.0097501693693186689
-0.0095387373859681934
-0.010913632371402957
-0.011863472326618421
-0.012388257251617275
-0.013026935328700031
-0.013240558375567767
-0.013568074574519622
-0.014009483925556527
-0.014420375698467981
-0.014406212441165056
-0.014505942335946549
-0.014719565382812749
-0.014902670851554063
-0.015199669472381024
-0.015466150515082678
-0.015702113979659774
-0.015946254604649789
-0.010270142384685221
-0.0061803571335213225
-0.0036768988511465218
-0.0007483855385594213
0.00059380080524661116
0.0023610421792651971
0.0045533385835013346
0.0066317418356476934
0.0071238181190182654
0.008040949432601736
0.009383135776400698
0.010611428968112192
0.012264777190044806
0.0138042322598878
0.01522979417764553
0.016685873673524899
0.016555626200631526
0.016850433757951522
0.017570296345485726
0.018176265780934096
0.019207290246599888
0.020124421560178345
0.020927659721672053
0.021761415461288552
0.023020226231128395
0.024165143848878846
0.025196168314543126
0.026257710358330105
0.02720535925003479
0.02818352571986131
0.029192209767812428
0.030192716655348041
0.029606896574112029
0.02944613152309003
0.029710421502281592
0.029860818329388441
0.030436270186710308
0.030897828891946429
0.031245494445098089
0.031623677576373403
0.032426915737867268
0.03311626074727396
0.033691712604595428
0.034297682040040287
0.034789758323402031
0.035312352184886764
0.035865463624495983
0.036410397903690668
0.037380387213109822
0.038236483370439882
0.038978686375683247
0.039751406959050058
0.040410234390332922
0.04109957939973867
0.041819441987269237
0.042531127414384841
0.043128919689419856
0.043757229542576964
0.044416056973857948
0.045066707244724349
0.045747875093717208
0.046420865782294742
0.047085679310458858
0.047752683902150747
0.054339941338848174
0.059340871806729409
0.06275547530580855
0.066595133835101614
0.068848465395604144
0.071526851986319875
0.074630293607256371
0.077619842076100343
0.079023063576163899
0.080851340106439712
0.083104671666932944
0.085244110075336305
0.087808603513966244
0.090259203800503202
0.092595910934954131
0.094963135647525024
0.09574403339132509
0.096949986165336136
0.098580993969561562
0.10009810862169922
0.10204027830405799
0.10386855483432654
0.10558293821251008
0.10732783916881457
0.10949779515535092
0.11155385798979368
0.11349602767214871
0.11546871493262495
0.11732750904102088
0.11921682072753621
0.12113664999217633
0.123048302096399
0.12337362723186093
0.12412400739753207
0.12529944259341458
0.12636098463721102
0.12784758171122382
0.12922028563314861
0.13047909640298933
0.13176842475095168
0.13348280812913871
0.13508329835523505
0.13656989542924519
0.13808701008137708
0.13949023158142845
0.14092397065960025
0.14238822731589651
0.14384430681177635
0.14572544133789336
0.14749268271191598
0.14914603093384921
0.15082989673390468
0.15239986938187705
0.15400035960797018
0.15563136741218864
0.15725419805599011
0.15876313554771662
0.16030259061756183
0.1618725632655301
0.16343435875308207
0.16502667181876324
0.16661080772402648
0.16818676646887629
0.16976491627725196
0.16975673911687844
0.17017361698671171
0.17101554988675299
0.1717435896347099
0.17289668441287845
0.17393588603896093
0.17486119451296031
0.17581702056508181
0.1771979016474215
0.1784648895776729
0.17961798435583964
0.18080159671212845
0.18187131591633687
0.18297155269866638
0.18410230705912006
0.18522488425915806
0.18677251648942439
0.1882062555675994
0.18952610149368712
0.19087646499789723
0.1921129353500251
0.19337992328027415
0.19467742878864802
0.19596675713660572
0.19714219233248759
0.19834814510648907
0.19958461545861361
0.20081290865032259
0.20207171942015939
0.20332235302957932
0.20456480947858591
0.20580945699111905
0.20747915953389515
0.20903496892457574
0.21047688516316521
0.2119493189798779
0.21330785964450488
0.21469691788725379
0.21611649370812847
0.2175278923685865
0.21882539787696592
0.22015342096346546
0.22151196162808884
0.2228623251322962
0.22424320621463273
0.22561591013655174
0.22698043689805719
0.22834715472308897
0.22959997939605145
0.23088332164713166
0.23219718147633317
0.23350286414511945
0.23483906439203225
0.2361670874785283
0.23748693340461147
0.23880897039422089
0.24016152496196386
0.24150590236928823
0.24284210261619782
0.24418049392663416
0.24551070807666081
0.24684311329021277
0.24817770956729401
0.24951171875066924
0.22875104352292322
0.213910621140183
0.20499045160240664
0.19448395509585734
0.18989771143424355
0.18372514080385544
0.17596624320467563
0.16863240063573001
0.16721881091170246
0.16421889421889868
0.15963265055731024
0.1554714619259476
0.14972394632578093
0.14440148575584769
0.1395040802161327
0.13449278152434244
0.13540173567746186
0.13472436286180256
0.13246066307736251
0.13062201832314244
0.12719704660013126
0.12419712990734516
0.12162226824477573
0.11893351343012662
0.11465843164666656
0.11080840489343867
0.10738343317043209
0.10384456829534636
0.10073075845046914
0.097503055453515577
0.094161459304476475
0.09085038073356895
0.093459555007571152
0.09448240231279105
0.093918922649231573
0.093780498015888114
0.09205574641376145
0.090756049841854244
0.089881408300162863
0.088892873606388506
0.086318011943820036
0.08416820531147573
0.08244345370934951
0.08060480895514148
0.079191219231145291
0.077663736355068333
0.076022360326906249
0.074411501876872121
0.071214316458024812
0.068442186069408065
0.066095110711014024
0.06363414220053823
0.06159822872027651
0.059448422087934709
0.057184722303506727
0.054951540097208262
0.053143412921113631
0.051221392592941166
0.049185479112685462
0.047180083210558013
0.045060794156339332
0.042972022680251229
0.040913768782287793
0.038847337723915187
0.042701159510460621
0.044968654328218956
0.04564982217719659
0.04675604505638805
0.046275940966799815
0.046220891907427536
0.046590897878271066
0.046847010697029054
0.045516796547003018
0.044611637427195865
0.044131533337605021
0.043537536095930265
0.043368593884470404
0.043085758520926373
0.042689030005297363
0.042322819067793685
0.04037028116149588
0.038842798285420949
0.037740370439564561
0.036524049441624955
0.035732783473900097
0.034827624354092382
0.033808572082199256
0.032820037388432866
0.032256557724877524
0.031579184909239853
0.030787918941517931
0.030027170551921972
0.029152529010238598
0.028308405046682198
0.027494798661250389
0.026673015115406852
0.024264904600752341
0.022281849116326167
0.020723848662122714
0.019051955055835863
0.017805116479766157
0.016444384751613902
0.014969759871375242
0.013525652569264534
0.01250660029736487
0.011373654873383819
0.010126816297318176
0.0089104952993795256
0.0075802811493513502
0.0062805845774516599
0.0050114055836767805
0.0037340494294910574
0.0028817483055091618
0.0019155540294474678
0.00083546660130324264
-0.00021410324871488755
-0.0013775662508198397
-0.0025105116747973751
-0.0036129395206506974
-0.0047235445269150494
-0.0059480426852724939
-0.0071420232655007142
-0.0083054862676030898
-0.0094771264301168039
-0.010618249014509137
-0.01176754875931166
-0.012925025664527624
-0.014080311506212037
-0.0093153445029609365
-0.0061367044685035083
-0.0045443914028307619
-0.0025270233069450104
-0.0020959821798394304
-0.0012398860225196501
4.126516501675088e-05
0.0012085232004655081
0.00078945426713456586
0.00079544036401945728
0.0012264814911201994
0.0015436294661352644
0.0022858324713682853
0.0029141423245144212
0.0034285590255754483
0.0039734933047599601
0.0029321006151612509
0.0023157629557806082
0.0021244803266162867
0.0018193045453674512
0.0019391837943346384
0.0019451698912167467
0.001837262836013793
0.001759873358935599
0.0021075389120745443
0.0023413113131276397
0.0024611905620955466
0.002611587389187776
0.0026480910641951622
0.0027151123173269507
0.0028126511485833312
0.0029020128194260954
0.0014050475214777828
0.00033313725375058408
-0.00031371798375853203
-0.0010744663733516914
-0.0014101597327288275
-0.0018597462441900998
-0.0024232259077367792
-0.0029561879931576628
-0.0030640950483638114
-0.0032858952556542218
-0.0036215886150295228
-0.0039267643962796377
-0.004345833329616057
-0.0047343846848267399
-0.0050924184619127837
-0.0054586293994115121
-0.0053997853066961509
-0.0054548343660652246
-0.0056237765775188891
-0.005762201210847793
-0.006014518996262058
-0.0062363192035511826
-0.0064276018327157972
-0.0066270616222934078
-0.0069404145639578411
-0.0072232499274966153
-0.0074755677129105351
-0.0077360626587374155
-0.0079660400264403835
-0.0082041945545561056
-0.0084505262430852567
-0.0086946668680847484
-0.010525134461888283
-0.011930547025466538
-0.012910904558823488
-0.014005155244264655
-0.014674350899487865
-0.015457439706795041
-0.016354421666188394
-0.017220886047455055
-0.017662295398506805
-0.018217597901642173
-0.018886793556862732
-0.019525471633957334
-0.02027804286313983
-0.021000096514195467
-0.021691632587126301
-0.022391345820469172
-0.022666004023600184
-0.023054555378814345
-0.023556999886112751
-0.024028926815285796
-0.024614746896545144
-0.025170049399678412
-0.025694834324687166
-0.026227796410108226
-0.026874651647618816
-0.027490989307002334
-0.028076809388260526
-0.028670806629931114
-0.029234286293478601
-0.029805943117437932
-0.030385777101810729
-0.030963420022653169
-0.031116007913287093
-0.031382488956003519
-0.031762863150803199
-0.032112719767478044
-0.032576469536237732
-0.033009701726871975
-0.033412416339382009
-0.033823308112304523
-0.03434809303731446
-0.034842360384198134
-0.035306110152956961
-0.03577803708212831
-0.036219446433176553
-0.036669032944636901
-0.037126796616510624
-0.037582369224854265
-0.038151834985289138
-0.038690783167596644
-0.039199213771778305
-0.03971582153637266
-0.040201911722843098
-0.040696179069725759
-0.041198623577022052
-0.041698877020788103
-0.042168612886432762
-0.042646525912489013
-0.043132616098958187
-0.043616515221897349
-0.044108591505251322
-0.044598476725074755
-0.045086170881369021
-0.045574452131365482
-0.040142480536398087
-0.036296835910233347
-0.034037518252860374
-0.031353145565273882
-0.03025509984647207
-0.028731999097456235
-0.026783843318222058
-0.024949580691077368
-0.024701645032713365
-0.024028654344134644
-0.022930608625339306
-0.021946456058631228
-0.020537248461701848
-0.019241934016861632
-0.018060512724106914
-0.016848573853229989
-0.017222961951132466
-0.017172295018819284
-0.016696573056290291
-0.01633474424584706
-0.015547860405185743
-0.014874869716611439
-0.014315772180122246
-0.013726157065509659
-0.012711486920674357
-0.011810709927927777
-0.011023826087267376
-0.010206424668483769
-0.0095029164017834157
-0.0087688905569604687
-0.0080043471340128479
-0.0072479808714802476
-0.0080779415777283356
-0.0084828472537594752
-0.0084626978995748069
-0.008556441697474956
-0.0082251304651587802
-0.0080077123849282041
-0.0079041874567826083
-0.0077701449505127116
-0.0072110474140242619
-0.0067658430296224778
-0.0064345317973061016
-0.0060727029868657811
-0.0058247673285097071
-0.0055463140920298292
-0.0052373432774253589
-0.0049365496232349412
-0.0042107009388218063
-0.0035987454064967984
-0.0031006830262581878
-0.0025721030678957139
-0.0021574162616178304
-0.0017122118772163954
-0.0012364899146901495
-0.00076894511257836139
-0.00041529346254910423
-3.1124234396720941e-05
0.00038356257187987516
0.00079007221774230038
0.0012270994417305724
0.0016559495053041896
0.0020766224084643645
0.0024994863751528233
0.0013360233730566017
0.00059761540117908942
0.00028426245951819869
-0.00014298363422703445
-0.00014517469775641691
-0.00026125891337057953
-0.00049123628106985048
-0.00069069607064409623
-0.00046510083000201967
-0.0003533987414453212
-0.00035558980497368494
-0.00032726329037750758
-0.00041282992786651873
-0.00046787898723078228
-0.00049241046847045382
-0.00052511911012348845
-0.00013277272155844033
0.00014568051492041271
0.00031024059931385824
0.00050531826183159215
0.00058650277226443657
0.00069820486082160314
0.00084042452750340791
0.00097446703377149224
0.00099461638795498588
0.0010452833202628481
0.0011264678306952222
0.0011994751807140357
0.0013030001088577066
0.0013983478765876782
0.00148551848390422
0.0015748801547497328
0.0020892968558165505
0.0024898204047960567
0.0027764508016893848
0.0030935987767069547
0.0032968535996393362
0.0035306260006958677
0.00379491597987721
0.0040510287986445324
0.0041932484653276099
0.0043659857101347099
0.0045692405330663224
0.0047643181955841218
0.0049899134362272508
0.0052073315164563004
0.0054165724362718864
0.005628004419616201
0.0057255432508772578
0.0058535996602621663
0.0060121736477712871
0.0061625704748667683
0.0063434848800871056
0.0065162221248935837
0.0066807822092866918
0.0068475333572085946
0.0070448020832563438
0.0072338936488899339
0.0074148080541099025
0.0075979135228586986
0.0077728418311945636
0.0079499612030590836
0.0081292716384527598
0.0083079949801428653
0.0069003913530412018
0.0059178427561606527
0.0053603491894984381
0.0046889624707519293
0.0044426307822220401
0.0040824059416076702
0.0036082879489078012
0.0031646875343335672
0.003146142149975138
0.0030137036135319747
0.0027673719250037023
0.0025515578146004898
0.0022218505521110991
0.0019226608677472268
0.0016539887615080267
0.0013771394948559473
0.0015253452584196722
0.0015596578698983178
0.0014800773292919819
0.0014310143668103256
0.0012680582522432619
0.0011356197158011647
0.0010336987574836596
0.0009236006387529518
0.00069960936793584695
0.00050613567524410011
0.00034317956067716408
0.00017204628569709307
3.1430588841234896e-05
-0.00011736226842764432
-0.00027433228610996543
-0.00042911124026280654
-0.00015883516419902619
-2.4522402207966063e-06
4.0037531672324489e-05
0.00011304488168990664
7.2159079622426597e-05
6.1790855679567827e-05
8.1940209861301004e-05
9.3912403629578699e-05
-8.0085546875511316e-06
-7.9411934879840794e-05
-0.00012029773694749222
-0.00016936069942848515
-0.00018790608378496627
-0.00021462862855480127
-0.00024952833373806577
-0.00028223697539210633
-0.00042883876913232501
-0.00054492298474740459
-0.0006304896222376732
-0.00072423342014123714
-0.00078745963992028929
-0.00085886302011260285
-0.00093844356071837967
-0.0010158330377948311
-0.0010627049367470695
-0.0011177539961125232
-0.0011809802158913476
-0.0012420153721409049
-0.0013112276888040863
-0.0013782489419379206
-0.0014430791315425977
-0.0015084964148503416
-0.0011488586679397497
-0.0009031140731153534
-0.00077126263037645686
-0.0006088936095131794
-0.00056041774073501045
-0.00048142429383239292
-0.00037191326880510331
-0.00027057940419147571
-0.00028313869166283009
-0.00026518040100964341
-0.00021670453223186469
-0.00017640582386760015
-0.00010558953737852478
-4.2950411303068475e-05
1.1511554358945957e-05
6.8164583550002611e-05
1.0924460655950833e-05
-1.5798084113433422e-05
-1.2003050758225741e-05
-1.638517781643968e-05
9.750273249984566e-06
2.7708563902928539e-05
3.7489694142443035e-05
4.9461887911088939e-05
9.1951659804545663e-05
0.000126264271284442
0.00015239972235087497
0.00018072623694641456
0.0002008755911285833
0.00022321600883984627
0.00024774749008026672
0.00027169187761743501
0.00018174311306910339
0.00012231192664561189
9.3398318346792466e-05
5.6307549634597684e-05
4.9734359046994835e-05
3.4984008045991827e-05
1.2056496631546952e-05
-8.679951253695481e-06
1.1011789856540287e-06
2.7051488115695198e-06
-3.8680417759444711e-06
-8.2501688342931992e-06
-2.080945630610527e-05
-3.1177680248730612e-05
-3.9354840662198548e-05
-4.8119094778850815e-05
-2.6365770770831026e-05
-1.2789607176291512e-05
-7.3906039951938725e-06
1.994627150475625e-07
-3.8763098814048335e-07
1.2163388378243391e-06
5.011372192946566e-06
8.2193118448596703e-06
3.2500910833308997e-06
4.7193385096739194e-07
-1.1515985223871138e-07
-1.2893472586448635e-06
-2.7247113589361059e-07
1.5731128365427204e-07
0
0
